[gd_scene load_steps=4 format=2]

[ext_resource path="res://resources/BaseResourceNode.tscn" type="PackedScene" id=1]
[ext_resource path="res://assets/image_resources/rom_resource_node_rock.png" type="Texture" id=2]

[sub_resource type="RectangleShape2D" id=1]
extents = Vector2( 10, 20 )

[node name="BaseResourceNode" instance=ExtResource( 1 )]
resource_type = "STONE"
deposit_amount = 40
power_required = 4

[node name="Sprite" parent="." index="0"]
texture = ExtResource( 2 )
offset = Vector2( 0, -10 )

[node name="CollisionShape2D" parent="." index="1"]
shape = SubResource( 1 )
